Asylum Applications — asylum_applications • refugees
…
    Source

    UNHCR Refugee Data Finder.

    Details

    See the notes on the data structure in the
methodology pages for more details.

    Examples

asylum_applications
#> # A tibble: 114,588 × 12
#>     year coo_name   coo   coo_iso coa_name coa   coa_iso procedure_type app_type
#>    <dbl> <chr>      <chr> <chr>   <chr>    <chr> <chr>   <chr>          <chr>   
#>  1  2006 Afghanist… AFG   AFG     Austral… AUL   AUS     G              A       
#>  2  2006 Albania    ALB   ALB     Austral… AUL   AUS     G              A       
#>  3  2006 Algeria    ALG   DZA     Austral… AUL   AUS     G              A       
#>  4  2006 Egypt      ARE   EGY     Austral… AUL   AUS     G              A       
#>  5  2006 Bahrain    BAH   BHR     Austral… AUL   AUS     G              A       
#>  6  2006 Bangladesh BGD   BGD     Austral… AUL   AUS     G              A       
#>  7  2006 Belarus    BLR   BLR     Austral… AUL   AUS     G              A       
#>  8  2006 Brazil     BRA   BRA     Austral… AUL   AUS     G              A       
#>  9  2006 Bulgaria   BUL   BGR     Austral… AUL   AUS     G              A       
#> 10  2006 Cambodia   CAM   KHM     Austral… AUL   AUS     G              A       
#> # ℹ 114,578 more rows
#> # ℹ 3 more variables: dec_level <chr>, app_pc <chr>, applied <dbl>
…
