Asylum Decisions — asylum_decisions • refugees
…
    Source

    UNHCR Refugee Data Finder.

    Details

    See the notes on the data structure in the
methodology pages for more details.

    Examples

asylum_decisions
#> # A tibble: 97,270 × 15
#>     year coo_name  coo   coo_iso coa_name coa   coa_iso procedure_type dec_level
#>    <dbl> <chr>     <chr> <chr>   <chr>    <chr> <chr>   <chr>          <chr>    
#>  1  2000 Afghanis… AFG   AFG     Austral… AUL   AUS     G              AR       
#>  2  2000 Albania   ALB   ALB     Austral… AUL   AUS     G              AR       
#>  3  2000 Algeria   ALG   DZA     Austral… AUL   AUS     G              AR       
#>  4  2000 Egypt     ARE   EGY     Austral… AUL   AUS     G              AR       
#>  5  2000 Armenia   ARM   ARM     Austral… AUL   AUS     G              AR       
#>  6  2000 Banglade… BGD   BGD     Austral… AUL   AUS     G              AR       
#>  7  2000 Brazil    BRA   BRA     Austral… AUL   AUS     G              AR       
#>  8  2000 Bosnia a… BSN   BIH     Austral… AUL   AUS     G              AR       
#>  9  2000 Bulgaria  BUL   BGR     Austral… AUL   AUS     G              AR       
#> 10  2000 Cambodia  CAM   KHM     Austral… AUL   AUS     G              AR       
#> # ℹ 97,260 more rows
#> # ℹ 6 more variables: dec_pc <chr>, dec_recognized <dbl>, dec_other <dbl>,
#> #   dec_rejected <dbl>, dec_closed <dbl>, dec_total <dbl>
…
