Demographics — demographics • refugees
…
    Source

    UNHCR Refugee Data Finder.

    Details

    See the notes on the data structure in the
methodology pages for more details.

    Examples

demographics
#> # A tibble: 226,063 × 26
#>     year coo_name         coo   coo_iso coa_name coa   coa_iso pop_type location
#>    <dbl> <chr>            <chr> <chr>   <chr>    <chr> <chr>   <chr>    <chr>   
#>  1  2001 Afghanistan      AFG   AFG     Afghani… AFG   AFG     IDP      Central 
#>  2  2001 Afghanistan      AFG   AFG     Afghani… AFG   AFG     IDP      Dispers…
#>  3  2001 Afghanistan      AFG   AFG     Afghani… AFG   AFG     IDP      North   
#>  4  2001 Afghanistan      AFG   AFG     Afghani… AFG   AFG     IDP      West    
#>  5  2001 Afghanistan      AFG   AFG     Afghani… AFG   AFG     RET      Dispers…
#>  6  2001 Iran (Islamic R… IRN   IRN     Afghani… AFG   AFG     REF      Kabul   
#>  7  2001 Iraq             IRQ   IRQ     Afghani… AFG   AFG     REF      Kabul   
#>  8  2001 Iraq             IRQ   IRQ     Albania  ALB   ALB     REF      Tirana  
#>  9  2001 North Macedonia  MCD   MKD     Albania  ALB   ALB     ASY      Tirana  
#> 10  2001 North Macedonia  MCD   MKD     Albania  ALB   ALB     REF      Tirana  
#> # ℹ 226,053 more rows
#> # ℹ 17 more variables: loc_type <chr>, acc_type <chr>, f_0_4 <dbl>,
#> #   f_5_11 <dbl>, f_12_17 <dbl>, f_18_59 <dbl>, f_60 <dbl>, f_other <dbl>,
#> #   f_total <dbl>, m_0_4 <dbl>, m_5_11 <dbl>, m_12_17 <dbl>, m_18_59 <dbl>,
#> #   m_60 <dbl>, m_other <dbl>, m_total <dbl>, total <dbl>
…
