Solutions — solutions • refugees
…
    Source

    UNHCR Refugee Data Finder.

    Details

    See the notes on the data structure in the
methodology pages for more details.

    Examples

solutions
#> # A tibble: 15,481 × 11
#>     year coo_name coo   coo_iso coa_name coa   coa_iso returned_refugees
#>    <dbl> <chr>    <chr> <chr>   <chr>    <chr> <chr>               <dbl>
#>  1  1959 Albania  ALB   ALB     Canada   CAN   CAN                    NA
#>  2  1959 Egypt    ARE   EGY     Canada   CAN   CAN                    NA
#>  3  1959 Austria  AUS   AUT     Canada   CAN   CAN                    NA
#>  4  1959 Bulgaria BUL   BGR     Canada   CAN   CAN                    NA
#>  5  1959 Czechia  CZE   CZE     Canada   CAN   CAN                    NA
#>  6  1959 Estonia  EST   EST     Canada   CAN   CAN                    NA
#>  7  1959 Finland  FIN   FIN     Canada   CAN   CAN                    NA
#>  8  1959 Germany  GFR   DEU     Canada   CAN   CAN                    NA
#>  9  1959 Greece   GRE   GRC     Canada   CAN   CAN                    NA
#> 10  1959 Hungary  HUN   HUN     Canada   CAN   CAN                    NA
#> # ℹ 15,471 more rows
#> # ℹ 3 more variables: resettlement <dbl>, naturalisation <dbl>,
#> #   returned_idps <dbl>
…
